Waveforms/TEK00006.CSV

Model,TBS1052C
Firmware Version,v2015-08-04-prequal4ch70_v1.3

Point Format,Y
Horizontal Units,S
Horizontal Scale,0.01
Sample Interval,8e-06
Filter Frequency,2e+08
Record Length,20000
Gating,0.0% to 100.0%
Probe Attenuation,10
Vertical Units,V
Vertical Offset,0
Vertical Scale,0.05
Label,
TIME,CH1
-3.11680e-02,0.002
-3.11600e-02,0.006
-3.11520e-02,0
-3.11440e-02,-0.002
-3.11360e-02,-0.002
-3.11280e-02,-0.006
-3.11200e-02,-0.002
-3.11120e-02,-0.004
-3.11040e-02,-0.006
-3.10960e-02,-0.002
-3.10880e-02,-0.002
-3.10800e-02,0
-3.10720e-02,-0.002
-3.10640e-02,-0.002
-3.10560e-02,-0.002
-3.10480e-02,-0.008
-3.10400e-02,0
-3.10320e-02,-0.002
-3.10240e-02,0.002
-3.10160e-02,-0.004
-3.10080e-02,0.002
-3.10000e-02,-0.002
-3.09920e-02,-0.006
-3.09840e-02,0.002
-3.09760e-02,-0.002
-3.09680e-02,0
-3.09600e-02,-0.006
-3.09520e-02,-0.004
-3.09440e-02,-0.006
-3.09360e-02,0
-3.09280e-02,-0.006
-3.09200e-02,-0.002
-3.09120e-02,-0.008
-3.09040e-02,-0.006
-3.08960e-02,0
-3.08880e-02,0.002
-3.08800e-02,-0.002
-3.08720e-02,-0.002
-3.08640e-02,-0.002
-3.08560e-02,0.002
-3.08480e-02,0
-3.08400e-02,-0.002
-3.08320e-02,-0.002
-3.08240e-02,0
-3.08160e-02,-0.006
-3.08080e-02,-0.008
-3.08000e-02,-0.006
-3.07920e-02,-0.002
-3.07840e-02,0
-3.07760e-02,-0.006
-3.07680e-02,0
-3.07600e-02,0
-3.07520e-02,0
-3.07440e-02,-0.002
-3.07360e-02,-0.002
-3.07280e-02,-0.004
-3.07200e-02,-0.004
-3.07120e-02,0
-3.07040e-02,-0.004
-3.06960e-02,0
-3.06880e-02,0
-3.06800e-02,-0.002
-3.06720e-02,-0.006
-3.06640e-02,0.004
-3.06560e-02,-0.002
-3.06480e-02,0
-3.06400e-02,-0.002
-3.06320e-02,-0.008
-3.06240e-02,-0.004
-3.06160e-02,0
-3.06080e-02,0.002
-3.06000e-02,-0.002
-3.05920e-02,-0.002
-3.05840e-02,-0.006
-3.05760e-02,0.004
-3.05680e-02,-0.002
-3.05600e-02,0.004
-3.05520e-02,-0.004
-3.05440e-02,-0.006
-3.05360e-02,-0.004
-3.05280e-02,0
-3.05200e-02,-0.006
-3.05120e-02,-0.002
-3.05040e-02,-0.004
-3.04960e-02,-0.004
-3.04880e-02,-0.008
-3.04800e-02,-0.004
-3.04720e-02,0.002
-3.04640e-02,-0.002
-3.04560e-02,0
-3.04480e-02,0.004
-3.04400e-02,-0.002
-3.04320e-02,0
-3.04240e-02,0
-3.04160e-02,-0.004
-3.04080e-02,-0.012
-3.04000e-02,-0.002
-3.03920e-02,0
-3.03840e-02,-0.002
-3.03760e-02,-0.002
-3.03680e-02,-0.008
-3.03600e-02,-0.004
-3.03520e-02,0
-3.03440e-02,-0.002
-3.03360e-02,-0.004
-3.03280e-02,-0.002
-3.03200e-02,-0.002
-3.03120e-02,0
-3.03040e-02,0
-3.02960e-02,-0.006
-3.02880e-02,0.004
-3.02800e-02,-0.006
-3.02720e-02,-0.004
-3.02640e-02,0
-3.02560e-02,-0.006
-3.02480e-02,-0.004
-3.02400e-02,-0.004
-3.02320e-02,-0.002
-3.02240e-02,-0.004
-3.02160e-02,0.002
-3.02080e-02,-0.008
-3.02000e-02,0
-3.01920e-02,-0.002
-3.01840e-02,0
-3.01760e-02,-0.002
-3.01680e-02,-0.004
-3.01600e-02,-0.004
-3.01520e-02,-0.002
-3.01440e-02,0
-3.01360e-02,-0.004
-3.01280e-02,0.002
-3.01200e-02,-0.002
-3.01120e-02,-0.002
-3.01040e-02,0.004
-3.00960e-02,-0.002
-3.00880e-02,0
-3.00800e-02,0
-3.00720e-02,0
-3.00640e-02,-0.002
-3.00560e-02,0
-3.00480e-02,0
-3.00400e-02,0.002
-3.00320e-02,-0.004
-3.00240e-02,-0.002
-3.00160e-02,-0.002
-3.00080e-02,-0.002
-3.00000e-02,-0.004
-2.99920e-02,-0.002
-2.99840e-02,-0.002
-2.99760e-02,0
-2.99680e-02,-0.002
-2.99600e-02,-0.006
-2.99520e-02,-0.004
-2.99440e-02,0.002
-2.99360e-02,-0.002
-2.99280e-02,-0.008
-2.99200e-02,-0.002
-2.99120e-02,0.004
-2.99040e-02,-0.002
-2.98960e-02,-0.002
-2.98880e-02,-0.004
-2.98800e-02,0
-2.98720e-02,-0.002
-2.98640e-02,-0.002
-2.98560e-02,-0.002
-2.98480e-02,-0.008
-2.98400e-02,-0.008
-2.98320e-02,0.006
-2.98240e-02,0
-2.98160e-02,0.002
-2.98080e-02,-0.006
-2.98000e-02,-0.006
-2.97920e-02,-0.008
-2.97840e-02,-0.002
-2.97760e-02,0
-2.97680e-02,-0.008
-2.97600e-02,0
-2.97520e-02,-0.004
-2.97440e-02,0.002
-2.97360e-02,-0.002
-2.97280e-02,-0.002
-2.97200e-02,-0.006
-2.97120e-02,-0.002
-2.97040e-02,-0.004
-2.96960e-02,-0.002
-2.96880e-02,-0.002
-2.96800e-02,0.002
-2.96720e-02,-0.002
-2.96640e-02,-0.006
-2.96560e-02,0.002
-2.96480e-02,-0.002
-2.96400e-02,-0.004
-2.96320e-02,-0.006
-2.96240e-02,0.002
-2.96160e-02,-0.004
-2.96080e-02,0.002
-2.96000e-02,0
-2.95920e-02,-0.004
-2.95840e-02,-0.002
-2.95760e-02,0.002
-2.95680e-02,0
-2.95600e-02,0
-2.95520e-02,-0.008
-2.95440e-02,-0.006
-2.95360e-02,0
-2.95280e-02,-0.004
-2.95200e-02,-0.002
-2.95120e-02,-0.006
-2.95040e-02,-0.002
-2.94960e-02,-0.006
-2.94880e-02,-0.006
-2.94800e-02,0
-2.94720e-02,-0.002
-2.94640e-02,-0.004
-2.94560e-02,-0.002
-2.94480e-02,-0.002
-2.94400e-02,-0.002
-2.94320e-02,-0.006
-2.94240e-02,0
-2.94160e-02,-0.004
-2.94080e-02,-0.006
-2.94000e-02,0.002
-2.93920e-02,-0.002
-2.93840e-02,-0.002
-2.93760e-02,-0.004
-2.93680e-02,0
-2.93600e-02,-0.006
-2.93520e-02,-0.002
-2.93440e-02,0
-2.93360e-02,-0.004
-2.93280e-02,-0.008
-2.93200e-02,-0.006
-2.93120e-02,-0.006
-2.93040e-02,-0.006
-2.92960e-02,-0.002
-2.92880e-02,-0.004
-2.92800e-02,0.004
-2.92720e-02,0.002
-2.92640e-02,-0.002
-2.92560e-02,-0.004
-2.92480e-02,0
-2.92400e-02,-0.002
-2.92320e-02,-0.006
-2.92240e-02,-0.008
-2.92160e-02,-0.008
-2.92080e-02,-0.002
-2.92000e-02,-0.004
-2.91920e-02,-0.002
-2.91840e-02,0.004
-2.91760e-02,-0.004
-2.91680e-02,-0.008
-2.91600e-02,0.002
-2.91520e-02,-0.004
-2.91440e-02,-0.002
-2.91360e-02,0
-2.91280e-02,-0.006
-2.91200e-02,-0.006
-2.91120e-02,-0.006
-2.91040e-02,0
-2.90960e-02,0
-2.90880e-02,-0.002
-2.90800e-02,-0.002
-2.90720e-02,-0.002
-2.90640e-02,-0.006
-2.90560e-02,-0.008
-2.90480e-02,0
-2.90400e-02,-0.004
-2.90320e-02,0.002
-2.90240e-02,-0.004
-2.90160e-02,-0.002
-2.90080e-02,0
-2.90000e-02,-0.004
-2.89920e-02,-0.004
-2.89840e-02,-0.004
-2.89760e-02,-0.006
-2.89680e-02,-0.004
-2.89600e-02,-0.004
-2.89520e-02,-0.002
-2.89440e-02,0
-2.89360e-02,-0.006
-2.89280e-02,0.002
-2.89200e-02,0.002
-2.89120e-02,-0.004
-2.89040e-02,-0.006
-2.88960e-02,-0.002
-2.88880e-02,0.002
-2.88800e-02,-0.004
-2.88720e-02,0
-2.88640e-02,0
-2.88560e-02,0
-2.88480e-02,-0.004
-2.88400e-02,0
-2.88320e-02,-0.004
-2.88240e-02,-0.004
-2.88160e-02,-0.008
-2.88080e-02,-0.004
-2.88000e-02,-0.006
-2.87920e-02,-0.006
-2.87840e-02,-0.008
-2.87760e-02,-0.002
-2.87680e-02,-0.002
-2.87600e-02,0.002
-2.87520e-02,-0.004
-2.87440e-02,0.002
-2.87360e-02,-0.006
-2.87280e-02,-0.002
-2.87200e-02,-0.002
-2.87120e-02,-0.002
-2.87040e-02,-0.002
-2.86960e-02,-0.008
-2.86880e-02,0
-2.86800e-02,0
-2.86720e-02,0.002
-2.86640e-02,-0.004
-2.86560e-02,-0.002
-2.86480e-02,-0.004
-2.86400e-02,0
-2.86320e-02,-0.01
-2.86240e-02,-0.004
-2.86160e-02,0
-2.86080e-02,-0.004
-2.86000e-02,0
-2.85920e-02,-0.004
-2.85840e-02,-0.004
-2.85760e-02,-0.002
-2.85680e-02,-0.006
-2.85600e-02,-0.004
-2.85520e-02,-0.008
-2.85440e-02,-0.004
-2.85360e-02,0
-2.85280e-02,-0.002
-2.85200e-02,-0.006
-2.85120e-02,-0.006
-2.85040e-02,-0.004
-2.84960e-02,0
-2.84880e-02,-0.002
-2.84800e-02,-0.002
-2.84720e-02,-0.008
-2.84640e-02,-0.006
-2.84560e-02,-0.004
-2.84480e-02,-0.008
-2.84400e-02,-0.004
-2.84320e-02,-0.002
-2.84240e-02,-0.002
-2.84160e-02,0.002
-2.84080e-02,-0.006
-2.84000e-02,-0.006
-2.83920e-02,-0.006
-2.83840e-02,0
-2.83760e-02,-0.004
-2.83680e-02,-0.002
-2.83600e-02,-0.006
-2.83520e-02,0
-2.83440e-02,-0.006
-2.83360e-02,-0.004
-2.83280e-02,0
-2.83200e-02,0.002
-2.83120e-02,-0.002
-2.83040e-02,0
-2.82960e-02,-0.002
-2.82880e-02,-0.002
-2.82800e-02,-0.006
-2.82720e-02,-0.004
-2.82640e-02,-0.002
-2.82560e-02,-0.004
-2.82480e-02,-0.002
-2.82400e-02,-0.004
-2.82320e-02,-0.004
-2.82240e-02,-0.004
-2.82160e-02,0.004
-2.82080e-02,0
-2.82000e-02,-0.002
-2.81920e-02,-0.004
-2.81840e-02,-0.004
-2.81760e-02,0
-2.81680e-02,-0.002
-2.81600e-02,-0.01
-2.81520e-02,-0.002
-2.81440e-02,-0.002
-2.81360e-02,-0.004
-2.81280e-02,-0.002
-2.81200e-02,-0.002
-2.81120e-02,0
-2.81040e-02,-0.006
-2.80960e-02,-0.002
-2.80880e-02,0.002
-2.80800e-02,-0.01
-2.80720e-02,-0.002
-2.80640e-02,0
-2.80560e-02,0
-2.80480e-02,0
-2.80400e-02,-0.002
-2.80320e-02,-0.002
-2.80240e-02,-0.004
-2.80160e-02,-0.006
-2.80080e-02,0
-2.80000e-02,-0.006
-2.79920e-02,-0.008
-2.79840e-02,-0.004
-2.79760e-02,-0.002
-2.79680e-02,-0.002
-2.79600e-02,-0.004
-2.79520e-02,-0.002
-2.79440e-02,-0.002
-2.79360e-02,-0.004
-2.79280e-02,-0.004
-2.79200e-02,0
-2.79120e-02,-0.006
-2.79040e-02,-0.002
-2.78960e-02,0.004
-2.78880e-02,-0.004
-2.78800e-02,-0.006
-2.78720e-02,0
-2.78640e-02,-0.002
-2.78560e-02,-0.004
-2.78480e-02,-0.002
-2.78400e-02,-0.004
-2.78320e-02,-0.004
-2.78240e-02,-0.002
-2.78160e-02,-0.002
-2.78080e-02,-0.002
-2.78000e-02,-0.004
-2.77920e-02,-0.004
-2.77840e-02,-0.002
-2.77760e-02,-0.002
-2.77680e-02,-0.002
-2.77600e-02,0.002
-2.77520e-02,-0.006
-2.77440e-02,-0.006
-2.77360e-02,-0.002
-2.77280e-02,0
-2.77200e-02,-0.006
-2.77120e-02,-0.012
-2.77040e-02,-0.002
-2.76960e-02,0
-2.76880e-02,-0.004
-2.76800e-02,-0.004
-2.76720e-02,-0.008
-2.76640e-02,-0.002
-2.76560e-02,-0.004
-2.76480e-02,-0.002
-2.76400e-02,-0.004
-2.76320e-02,-0.002
-2.76240e-02,-0.004
-2.76160e-02,-0.004
-2.76080e-02,0.002
-2.76000e-02,-0.004
-2.75920e-02,0
-2.75840e-02,-0.002
-2.75760e-02,-0.006
-2.75680e-02,-0.004
-2.75600e-02,0
-2.75520e-02,-0.002
-2.75440e-02,-0.01
-2.75360e-02,-0.006
-2.75280e-02,-0.002
-2.75200e-02,-0.002
-2.75120e-02,-0.002
-2.75040e-02,-0.002
-2.74960e-02,-0.002
-2.74880e-02,0.004
-2.74800e-02,0
-2.74720e-02,-0.004
-2.74640e-02,-0.006
-2.74560e-02,-0.002
-2.74480e-02,-0.004
-2.74400e-02,-0.004
-2.74320e-02,0
-2.74240e-02,-0.002
-2.74160e-02,-0.006
-2.74080e-02,-0.002
-2.74000e-02,-0.004
-2.73920e-02,-0.006
-2.73840e-02,-0.004
-2.73760e-02,-0.004
-2.73680e-02,-0.004
-2.73600e-02,-0.002
-2.73520e-02,0.002
-2.73440e-02,-0.002
-2.73360e-02,0.002
-2.73280e-02,-0.004
-2.73200e-02,0.002
-2.73120e-02,-0.008
-2.73040e-02,-0.004
-2.72960e-02,0.002
-2.72880e-02,-0.006
-2.72800e-02,0
-2.72720e-02,-0.002
-2.72640e-02,-0.006
-2.72560e-02,0.002
-2.72480e-02,-0.004
-2.72400e-02,0
-2.72320e-02,0
-2.72240e-02,-0.004
-2.72160e-02,-0.002
-2.72080e-02,-0.006
-2.72000e-02,-0.006
-2.71920e-02,-0.002
-2.71840e-02,-0.002
-2.71760e-02,-0.002
-2.71680e-02,-0.004
-2.71600e-02,0
-2.71520e-02,-0.002
-2.71440e-02,-0.004
-2.71360e-02,-0.004
-2.71280e-02,-0.004
-2.71200e-02,-0.002
-2.71120e-02,-0.004
-2.71040e-02,-0.002
-2.70960e-02,-0.002
-2.70880e-02,-0.004
-2.70800e-02,-0.004
-2.70720e-02,-0.002
-2.70640e-02,-0.004
-2.70560e-02,-0.004
-2.70480e-02,-0.002
-2.70400e-02,-0.002
-2.70320e-02,-0.004
-2.70240e-02,-0.004
-2.70160e-02,0.002
-2.70080e-02,-0.002
-2.70000e-02,-0.002
-2.69920e-02,0
-2.69840e-02,-0.004
-2.69760e-02,0
-2.69680e-02,0
-2.69600e-02,-0.004
-2.69520e-02,-0.006
-2.69440e-02,-0.006
-2.69360e-02,-0.002
-2.69280e-02,-0.002
-2.69200e-02,-0.002
-2.69120e-02,-0.004
-2.69040e-02,0.004
-2.68960e-02,-0.006
-2.68880e-02,-0.006
-2.68800e-02,-0.002
-2.68720e-02,-0.006
-2.68640e-02,-0.006
-2.68560e-02,0.002
-2.68480e-02,-0.006
-2.68400e-02,0
-2.68320e-02,-0.002
-2.68240e-02,-0.006
-2.68160e-02,-0.002
-2.68080e-02,-0.002
-2.68000e-02,-0.002
-2.67920e-02,0
-2.67840e-02,0
-2.67760e-02,-0.002
-2.67680e-02,-0.002
-2.67600e-02,0
-2.67520e-02,-0.004
-2.67440e-02,0
-2.67360e-02,-0.004
-2.67280e-02,0.002
-2.67200e-02,-0.006
-2.67120e-02,-0.002
-2.67040e-02,-0.004
-2.66960e-02,-0.01
-2.66880e-02,0
-2.66800e-02,0
-2.66720e-02,-0.004
-2.66640e-02,0
-2.66560e-02,-0.004
-2.66480e-02,-0.004
-2.66400e-02,0
-2.66320e-02,0.002
-2.66240e-02,0.002
-2.66160e-02,0
-2.66080e-02,0
-2.66000e-02,-0.004
-2.65920e-02,-0.004
-2.65840e-02,-0.004
-2.65760e-02,0
-2.65680e-02,-0.004
-2.65600e-02,-0.01
-2.65520e-02,0
-2.65440e-02,-0.004
-2.65360e-02,-0.006
-2.65280e-02,-0.002
-2.65200e-02,-0.006
-2.65120e-02,0
-2.65040e-02,-0.006
-2.64960e-02,0.002
-2.64880e-02,-0.006
-2.64800e-02,0
-2.64720e-02,-0.006
-2.64640e-02,0
-2.64560e-02,-0.002
-2.64480e-02,-0.004
-2.64400e-02,-0.006
-2.64320e-02,-0.006
-2.64240e-02,0.002
-2.64160e-02,-0.004
-2.64080e-02,-0.006
-2.64000e-02,-0.004
-2.63920e-02,-0.004
-2.63840e-02,-0.008
-2.63760e-02,-0.002
-2.63680e-02,0
-2.63600e-02,-0.004
-2.63520e-02,-0.002
-2.63440e-02,-0.004
-2.63360e-02,-0.004
-2.63280e-02,-0.004
-2.63200e-02,-0.004
-2.63120e-02,-0.004
-2.63040e-02,-0.002
-2.62960e-02,-0.002
-2.62880e-02,-0.002
-2.62800e-02,-0.002
-2.62720e-02,-0.008
-2.62640e-02,-0.004
-2.62560e-02,-0.002
-2.62480e-02,0
-2.62400e-02,0
-2.62320e-02,-0.006
-2.62240e-02,-0.002
-2.62160e-02,-0.004
-2.62080e-02,0.002
-2.62000e-02,-0.004
-2.61920e-02,-0.004
-2.61840e-02,-0.002
-2.61760e-02,-0.002
-2.61680e-02,-0.004
-2.61600e-02,-0.002
-2.61520e-02,-0.004
-2.61440e-02,0.002
-2.61360e-02,0
-2.61280e-02,-0.004
-2.61200e-02,0
-2.61120e-02,-0.006
-2.61040e-02,0.004
-2.60960e-02,-0.004
-2.60880e-02,-0.002
-2.60800e-02,-0.006
-2.60720e-02,-0.004
-2.60640e-02,-0.002
-2.60560e-02,-0.002
-2.60480e-02,-0.004
-2.60400e-02,-0.006
-2.60320e-02,-0.002
-2.60240e-02,-0.01
-2.60160e-02,-0.004
-2.60080e-02,-0.002
-2.60000e-02,-0.002
-2.59920e-02,-0.006
-2.59840e-02,-0.002
-2.59760e-02,-0.004
-2.59680e-02,0
-2.59600e-02,0
-2.59520e-02,-0.008
-2.59440e-02,-0.002
-2.59360e-02,-0.006
-2.59280e-02,0.002
-2.59200e-02,-0.002
-2.59120e-02,0
-2.59040e-02,-0.004
-2.58960e-02,-0.004
-2.58880e-02,-0.002
-2.58800e-02,-0.002
-2.58720e-02,0
-2.58640e-02,0.002
-2.58560e-02,-0.002
-2.58480e-02,-0.004
-2.58400e-02,-0.002
-2.58320e-02,-0.004
-2.58240e-02,0
-2.58160e-02,-0.006
-2.58080e-02,-0.006
-2.58000e-02,0
-2.57920e-02,-0.004
-2.57840e-02,-0.004
-2.57760e-02,-0.006
-2.57680e-02,-0.006
-2.57600e-02,-0.004
-2.57520e-02,-0.006
-2.57440e-02,-0.002
-2.57360e-02,-0.002
-2.57280e-02,0
-2.57200e-02,-0.002
-2.57120e-02,-0.002
-2.57040e-02,-0.004
-2.56960e-02,0
-2.56880e-02,0
-2.56800e-02,-0.004
-2.56720e-02,0
-2.56640e-02,0
-2.56560e-02,-0.004
-2.56480e-02,-0.004
-2.56400e-02,-0.002
-2.56320e-02,-0.002
-2.56240e-02,0
-2.56160e-02,-0.004
-2.56080e-02,-0.006
-2.56000e-02,-0.004
-2.55920e-02,-0.002
-2.55840e-02,-0.004
-2.55760e-02,-0.002
-2.55680e-02,-0.002
-2.55600e-02,-0.002
-2.55520e-02,0
-2.55440e-02,0.002
-2.55360e-02,-0.004
-2.55280e-02,0
-2.55200e-02,0.004
-2.55120e-02,0
-2.55040e-02,-0.002
-2.54960e-02,-0.006
-2.54880e-02,-0.006
-2.54800e-02,0.004
-2.54720e-02,0
-2.54640e-02,-0.006
-2.54560e-02,-0.002
-2.54480e-02,-0.006
-2.54400e-02,0.002
-2.54320e-02,-0.002
-2.54240e-02,-0.002
-2.54160e-02,0
-2.54080e-02,-0.002
-2.54000e-02,-0.004
-2.53920e-02,-0.006
-2.53840e-02,-0.004
-2.53760e-02,-0.002
-2.53680e-02,-0.002
-2.53600e-02,-0.004
-2.53520e-02,-0.002
-2.53440e-02,-0.004
-2.53360e-02,-0.004
-2.53280e-02,-0.002
-2.53200e-02,-0.002
-2.53120e-02,0.002
-2.53040e-02,-0.002
-2.52960e-02,-0.002
-2.52880e-02,-0.002
-2.52800e-02,-0.002
-2.52720e-02,0
-2.52640e-02,0.004
-2.52560e-02,-0.002
-2.52480e-02,0
-2.52400e-02,-0.004
-2.52320e-02,-0.004
-2.52240e-02,-0.006
-2.52160e-02,-0.002
-2.52080e-02,-0.002
-2.52000e-02,-0.002
-2.51920e-02,-0.008
-2.51840e-02,-0.002
-2.51760e-02,-0.002
-2.51680e-02,-0.006
-2.51600e-02,-0.004
-2.51520e-02,-0.002
-2.51440e-02,-0.004
-2.51360e-02,-0.004
-2.51280e-02,-0.004
-2.51200e-02,-0.006
-2.51120e-02,0
-2.51040e-02,-0.004
-2.50960e-02,-0.006
-2.50880e-02,-0.002
-2.50800e-02,-0.006
-2.50720e-02,-0.004
-2.50640e-02,0.004
-2.50560e-02,-0.004
-2.50480e-02,-0.004
-2.50400e-02,-0.006
-2.50320e-02,-0.006
-2.50240e-02,-0.006
-2.50160e-02,0
-2.50080e-02,-0.002
-2.50000e-02,-0.002
-2.49920e-02,-0.006
-2.49840e-02,-0.004
-2.49760e-02,0.002
-2.49680e-02,-0.002
-2.49600e-02,-0.002
-2.49520e-02,-0.004
-2.49440e-02,-0.002
-2.49360e-02,-0.004
-2.49280e-02,0
-2.49200e-02,0.002
-2.49120e-02,-0.006
-2.49040e-02,-0.002
-2.48960e-02,0.006
-2.48880e-02,0.004
-2.48800e-02,-0.004
-2.48720e-02,-0.004
-2.48640e-02,-0.012
-2.48560e-02,-0.004
-2.48480e-02,-0.004
-2.48400e-02,-0.004
-2.48320e-02,-0.002
-2.48240e-02,-0.004
-2.48160e-02,0
-2.48080e-02,-0.004
-2.48000e-02,-0.004
-2.47920e-02,-0.004
-2.47840e-02,-0.002
-2.47760e-02,0
-2.47680e-02,-0.004
-2.47600e-02,-0.004
-2.47520e-02,-0.006
-2.47440e-02,0
-2.47360e-02,0.002
-2.47280e-02,-0.004
-2.47200e-02,-0.002
-2.47120e-02,-0.002
-2.47040e-02,0
-2.46960e-02,-0.004
-2.46880e-02,0.004
-2.46800e-02,-0.002
-2.46720e-02,0
-2.46640e-02,-0.004
-2.46560e-02,0
-2.46480e-02,-0.004
-2.46400e-02,-0.002
-2.46320e-02,0
-2.46240e-02,-0.006
-2.46160e-02,0.004
-2.46080e-02,0
-2.46000e-02,-0.004
-2.45920e-02,-0.002
-2.45840e-02,0.002
-2.45760e-02,-0.004
-2.45680e-02,-0.002
-2.45600e-02,0
-2.45520e-02,-0.004
-2.45440e-02,-0.008
-2.45360e-02,0.002
-2.45280e-02,-0.002
-2.45200e-02,0
-2.45120e-02,0
-2.45040e-02,0
-2.44960e-02,0
-2.44880e-02,-0.004
-2.44800e-02,-0.004
-2.44720e-02,-0.002
-2.44640e-02,-0.006
-2.44560e-02,0
-2.44480e-02,-0.002
-2.44400e-02,-0.006
-2.44320e-02,-0.002
-2.44240e-02,-0.006
-2.44160e-02,-0.002
-2.44080e-02,0.002
-2.44000e-02,0.004
-2.43920e-02,0
-2.43840e-02,0.006
-2.43760e-02,-0.008
-2.43680e-02,-0.008
-2.43600e-02,-0.004
-2.43520e-02,-0.004
-2.43440e-02,-0.004
-2.43360e-02,0.002
-2.43280e-02,0.002
-2.43200e-02,-0.002
-2.43120e-02,-0.002
-2.43040e-02,-0.002
-2.42960e-02,-0.002
-2.42880e-02,-0.006
-2.42800e-02,0.002
-2.42720e-02,-0.002
-2.42640e-02,-0.004
-2.42560e-02,-0.002
-2.42480e-02,-0.008
-2.42400e-02,-0.006
-2.42320e-02,-0.002
-2.42240e-02,-0.002
-2.42160e-02,0.002
-2.42080e-02,-0.002
-2.42000e-02,-0.004
-2.41920e-02,0
-2.41840e-02,-0.002
-2.41760e-02,-0.002
-2.41680e-02,0.002
-2.41600e-02,-0.002
-2.41520e-02,0.002
-2.41440e-02,-0.002
-2.41360e-02,-0.006
-2.41280e-02,0.004
-2.41200e-02,-0.004
-2.41120e-02,-0.008
-2.41040e-02,-0.004
-2.40960e-02,-0.002
-2.40880e-02,-0.002
-2.40800e-02,-0.004
-2.40720e-02,-0.004
-2.40640e-02,-0.004
-2.40560e-02,-0.002
-2.40480e-02,0.002
-2.40400e-02,-0.004
-2.40320e-02,-0.008
-2.40240e-02,-0.004
-2.40160e-02,0
-2.40080e-02,-0.008
-2.40000e-02,-0.004
-2.39920e-02,0.002
-2.39840e-02,-0.002
-2.39760e-02,-0.002
-2.39680e-02,-0.002
-2.39600e-02,0.002
-2.39520e-02,0
-2.39440e-02,-0.004
-2.39360e-02,-0.004
-2.39280e-02,-0.002
-2.39200e-02,-0.004
-2.39120e-02,-0.002
-2.39040e-02,-0.004
-2.38960e-02,0.002
-2.38880e-02,0.002
-2.38800e-02,0
-2.38720e-02,-0.006
-2.38640e-02,-0.008
-2.38560e-02,-0.006
-2.38480e-02,0
-2.38400e-02,-0.002
-2.38320e-02,-0.004
-2.38240e-02,-0.006
-2.38160e-02,-0.006
-2.38080e-02,-0.004
-2.38000e-02,-0.002
-2.37920e-02,-0.006
-2.37840e-02,-0.004
-2.37760e-02,0
-2.37680e-02,-0.002
-2.37600e-02,-0.006
-2.37520e-02,0.002
-2.37440e-02,-0.002
-2.37360e-02,-0.002
-2.37280e-02,0
-2.37200e-02,0
-2.37120e-02,0.002
-2.37040e-02,0
-2.36960e-02,0
-2.36880e-02,-0.006
-2.36800e-02,0
-2.36720e-02,-0.004
-2.36640e-02,-0.004
-2.36560e-02,-0.004
-2.36480e-02,0
-2.36400e-02,-0.004
-2.36320e-02,-0.004
-2.36240e-02,-0.004
-2.36160e-02,-0.002
-2.36080e-02,-0.002
-2.36000e-02,-0.004
-2.35920e-02,-0.006
-2.35840e-02,-0.002
-2.35760e-02,0.002
-2.35680e-02,-0.002
-2.35600e-02,-0.006
-2.35520e-02,-0.004
-2.35440e-02,0
-2.35360e-02,-0.002
-2.35280e-02,0
-2.35200e-02,-0.006
-2.35120e-02,-0.004
-2.35040e-02,0
-2.34960e-02,-0.004
-2.34880e-02,0.004
-2.34800e-02,-0.002
-2.34720e-02,0
-2.34640e-02,-0.01
-2.34560e-02,-0.004
-2.34480e-02,0
-2.34400e-02,0.004
-2.34320e-02,-0.002
-2.34240e-02,-0.004
-2.34160e-02,-0.002
-2.34080e-02,-0.006
-2.34000e-02,0.002
-2.33920e-02,-0.004
-2.33840e-02,0.004
-2.33760e-02,-0.004
-2.33680e-02,-0.002
-2.33600e-02,0
-2.33520e-02,-0.006
-2.33440e-02,-0.002
-2.33360e-02,-0.004
-2.33280e-02,-0.002
-2.33200e-02,-0.002
-2.33120e-02,-0.002
-2.33040e-02,0
-2.32960e-02,-0.004
-2.32880e-02,-0.002
-2.32800e-02,-0.002
-2.32720e-02,-0.004
-2.32640e-02,-0.006
-2.32560e-02,-0.002
-2.32480e-02,-0.002
-2.32400e-02,0
-2.32320e-02,-0.002
-2.32240e-02,-0.004
-2.32160e-02,-0.004
-2.32080e-02,0
-2.32000e-02,-0.002
-2.31920e-02,-0.006
-2.31840e-02,0.002
-2.31760e-02,0
-2.31680e-02,0.004
-2.31600e-02,-0.002
-2.31520e-02,0.002
-2.31440e-02,-0.002
-2.31360e-02,0
-2.31280e-02,-0.004
-2.31200e-02,-0.002
-2.31120e-02,-0.002
-2.31040e-02,0.004
-2.30960e-02,-0.002
-2.30880e-02,0
-2.30800e-02,-0.002
-2.30720e-02,-0.004
-2.30640e-02,0.002
-2.30560e-02,0
-2.30480e-02,-0.002
-2.30400e-02,-0.004
-2.30320e-02,-0.002
-2.30240e-02,-0.002
-2.30160e-02,-0.002
-2.30080e-02,-0.002
-2.30000e-02,-0.002
-2.29920e-02,-0.002
-2.29840e-02,0
-2.29760e-02,-0.004
-2.29680e-02,-0.006
-2.29600e-02,-0.004
-2.29520e-02,-0.002
-2.29440e-02,0
-2.29360e-02,-0.002
-2.29280e-02,-0.004
-2.29200e-02,-0.004
-2.29120e-02,0
-2.29040e-02,-0.006
-2.28960e-02,-0.004
