Waveforms/TEK00003.CSV

Model,TBS1052C
Firmware Version,v2015-08-04-prequal4ch70_v1.3

Point Format,Y
Horizontal Units,S
Horizontal Scale,0.04
Sample Interval,0.00032
Filter Frequency,2e+08
Record Length,2000
Gating,0.0% to 100.0%
Probe Attenuation,10
Vertical Units,V
Vertical Offset,0
Vertical Scale,0.05
Label,
TIME,CH1
-7.040e-02,0
-7.008e-02,0
-6.976e-02,0
-6.944e-02,0
-6.912e-02,-0.002
-6.880e-02,0
-6.848e-02,0
-6.816e-02,-0.002
-6.784e-02,0
-6.752e-02,-0.002
-6.720e-02,0
-6.688e-02,-0.002
-6.656e-02,-0.002
-6.624e-02,-0.002
-6.592e-02,0
-6.560e-02,-0.002
-6.528e-02,-0.002
-6.496e-02,-0.002
-6.464e-02,-0.004
-6.432e-02,-0.002
-6.400e-02,-0.002
-6.368e-02,-0.002
-6.336e-02,0
-6.304e-02,-0.002
-6.272e-02,0.002
-6.240e-02,-0.002
-6.208e-02,0
-6.176e-02,0
-6.144e-02,0
-6.112e-02,0
-6.080e-02,0
-6.048e-02,0
-6.016e-02,0
-5.984e-02,-0.002
-5.952e-02,-0.002
-5.920e-02,0
-5.888e-02,0.002
-5.856e-02,0
-5.824e-02,0
-5.792e-02,0
-5.760e-02,-0.002
-5.728e-02,0
-5.696e-02,0.002
-5.664e-02,0
-5.632e-02,0.002
-5.600e-02,0.002
-5.568e-02,0.002
-5.536e-02,0
-5.504e-02,0
-5.472e-02,0
-5.440e-02,-0.004
-5.408e-02,0
-5.376e-02,-0.002
-5.344e-02,-0.002
-5.312e-02,0
-5.280e-02,-0.002
-5.248e-02,0
-5.216e-02,0.002
-5.184e-02,0
-5.152e-02,-0.002
-5.120e-02,0
-5.088e-02,0
-5.056e-02,0
-5.024e-02,0
-4.992e-02,-0.002
-4.960e-02,-0.002
-4.928e-02,0
-4.896e-02,0
-4.864e-02,0
-4.832e-02,0
-4.800e-02,-0.004
-4.768e-02,0
-4.736e-02,-0.002
-4.704e-02,-0.002
-4.672e-02,-0.002
-4.640e-02,0
-4.608e-02,0
-4.576e-02,-0.004
-4.544e-02,-0.002
-4.512e-02,-0.002
-4.480e-02,0
-4.448e-02,0
-4.416e-02,0
-4.384e-02,-0.002
-4.352e-02,-0.002
-4.320e-02,-0.002
-4.288e-02,-0.002
-4.256e-02,0
-4.224e-02,0
-4.192e-02,-0.002
-4.160e-02,-0.002
-4.128e-02,0
-4.096e-02,0
-4.064e-02,0.002
-4.032e-02,0
-4.000e-02,0.002
-3.968e-02,0
-3.936e-02,0
-3.904e-02,-0.002
-3.872e-02,0
-3.840e-02,0
-3.808e-02,0.002
-3.776e-02,0.002
-3.744e-02,0
-3.712e-02,0.002
-3.680e-02,0.002
-3.648e-02,0
-3.616e-02,0.002
-3.584e-02,0.002
-3.552e-02,0.002
-3.520e-02,0
-3.488e-02,0.002
-3.456e-02,0
-3.424e-02,0
-3.392e-02,0.002
-3.360e-02,0
-3.328e-02,0
-3.296e-02,0.002
-3.264e-02,0
-3.232e-02,0
-3.200e-02,-0.002
-3.168e-02,0
-3.136e-02,-0.002
-3.104e-02,-0.002
-3.072e-02,-0.004
-3.040e-02,-0.002
-3.008e-02,-0.002
-2.976e-02,-0.002
-2.944e-02,-0.002
-2.912e-02,-0.002
-2.880e-02,-0.002
-2.848e-02,0
-2.816e-02,0
-2.784e-02,0
-2.752e-02,-0.002
-2.720e-02,0
-2.688e-02,0
-2.656e-02,0
-2.624e-02,0
-2.592e-02,-0.004
-2.560e-02,-0.002
-2.528e-02,0
-2.496e-02,-0.002
-2.464e-02,-0.002
-2.432e-02,0
-2.400e-02,0
-2.368e-02,0
-2.336e-02,0
-2.304e-02,-0.002
-2.272e-02,0
-2.240e-02,-0.002
-2.208e-02,-0.002
-2.176e-02,-0.002
-2.144e-02,-0.002
-2.112e-02,0
-2.080e-02,0
-2.048e-02,0
-2.016e-02,0.002
-1.984e-02,0
-1.952e-02,0
-1.920e-02,0
-1.888e-02,0
-1.856e-02,0.002
-1.824e-02,0.002
-1.792e-02,0.002
-1.760e-02,-0.002
-1.728e-02,-0.002
-1.696e-02,0
-1.664e-02,0
-1.632e-02,0.002
-1.600e-02,0
-1.568e-02,0
-1.536e-02,0
-1.504e-02,-0.002
-1.472e-02,0
-1.440e-02,0
-1.408e-02,0
-1.376e-02,0
-1.344e-02,0.002
-1.312e-02,0
-1.280e-02,0.002
-1.248e-02,0.002
-1.216e-02,0
-1.184e-02,0.002
-1.152e-02,-0.002
-1.120e-02,0
-1.088e-02,0
-1.056e-02,0
-1.024e-02,0
-9.920e-03,-0.002
-9.600e-03,0
-9.280e-03,-0.008
-8.960e-03,0
-8.640e-03,-0.002
-8.320e-03,-0.004
-8.000e-03,-0.002
-7.680e-03,-0.002
-7.360e-03,-0.002
-7.040e-03,-0.006
-6.720e-03,-0.002
-6.400e-03,0
-6.080e-03,-0.002
-5.760e-03,-0.002
-5.440e-03,-0.002
-5.120e-03,-0.002
-4.800e-03,-0.002
-4.480e-03,-0.004
-4.160e-03,-0.002
-3.840e-03,0
-3.520e-03,0
-3.200e-03,0
-2.880e-03,0
-2.560e-03,0.004
-2.240e-03,0.002
-1.920e-03,0.002
-1.600e-03,0.004
-1.280e-03,0.002
-9.600e-04,0.002
-6.400e-04,0.002
-3.200e-04,0.004
2.281e-16,0.144
3.200e-04,0.152
6.400e-04,0.154
9.600e-04,0.156
1.280e-03,0.152
1.600e-03,0.152
1.920e-03,0.15
2.240e-03,0.156
2.560e-03,0.156
2.880e-03,0.156
3.200e-03,0.152
3.520e-03,0.152
3.840e-03,0.154
4.160e-03,0.15
4.480e-03,0.154
4.800e-03,0.154
5.120e-03,0.152
5.440e-03,0.152
5.760e-03,0.156
6.080e-03,0.156
6.400e-03,0.122
6.720e-03,0.154
7.040e-03,0.152
7.360e-03,0.15
7.680e-03,0.152
8.000e-03,0.156
8.320e-03,0.154
8.640e-03,0.148
8.960e-03,0.152
9.280e-03,0.126
9.600e-03,0.122
9.920e-03,0.154
1.024e-02,0.152
1.056e-02,0.15
1.088e-02,0.15
1.120e-02,0.038
1.152e-02,0.006
1.184e-02,0.088
1.216e-02,0.092
1.248e-02,0.09
1.280e-02,0.09
1.312e-02,0.092
1.344e-02,0.09
1.376e-02,0.09
1.408e-02,0.09
1.440e-02,0.088
1.472e-02,0.09
1.504e-02,0.088
1.536e-02,0.09
1.568e-02,0.054
1.600e-02,0.05
1.632e-02,0.052
1.664e-02,0.05
1.696e-02,0.052
1.728e-02,0.05
1.760e-02,0.054
1.792e-02,0.05
1.824e-02,0.07
1.856e-02,0.086
1.888e-02,0.088
1.920e-02,0.086
1.952e-02,0.088
1.984e-02,0.086
2.016e-02,0.086
2.048e-02,0.088
2.080e-02,0.086
2.112e-02,0.09
2.144e-02,0.084
2.176e-02,0.09
2.208e-02,0.142
2.240e-02,0.102
2.272e-02,0.088
2.304e-02,0.088
2.336e-02,0.088
2.368e-02,0.086
2.400e-02,0.058
2.432e-02,0.05
2.464e-02,0.05
2.496e-02,0.048
2.528e-02,0.048
2.560e-02,0.05
2.592e-02,0.084
2.624e-02,0.086
2.656e-02,0.086
2.688e-02,0.084
2.720e-02,0.086
2.752e-02,0.138
2.784e-02,0.084
2.816e-02,0.082
2.848e-02,0.08
2.880e-02,0.082
2.912e-02,0.05
2.944e-02,0.048
2.976e-02,0.046
3.008e-02,0.046
3.040e-02,0.082
3.072e-02,0.084
3.104e-02,0.08
3.136e-02,0.132
3.168e-02,0.082
3.200e-02,0.086
3.232e-02,0.08
3.264e-02,0.076
3.296e-02,0.044
3.328e-02,0.048
3.360e-02,0.044
3.392e-02,0.078
3.424e-02,0.078
3.456e-02,0.08
3.488e-02,0.088
3.520e-02,0.08
3.552e-02,0.082
3.584e-02,0.08
3.616e-02,0.078
3.648e-02,0.046
3.680e-02,0.044
3.712e-02,0.08
3.744e-02,0.08
3.776e-02,0.078
3.808e-02,0.082
3.840e-02,0.088
3.872e-02,0.08
3.904e-02,0.074
3.936e-02,0.046
3.968e-02,0.046
4.000e-02,0.058
4.032e-02,0.078
4.064e-02,0.082
4.096e-02,0.126
4.128e-02,0.078
4.160e-02,0.076
4.192e-02,0.052
4.224e-02,0.046
4.256e-02,0.054
4.288e-02,0.076
4.320e-02,0.08
4.352e-02,0.088
4.384e-02,0.078
4.416e-02,0.078
4.448e-02,0.044
4.480e-02,0.044
4.512e-02,0.076
4.544e-02,0.078
4.576e-02,0.11
4.608e-02,0.076
4.640e-02,0.076
4.672e-02,0.074
4.704e-02,0.042
4.736e-02,0.07
4.768e-02,0.076
4.800e-02,0.076
4.832e-02,0.124
4.864e-02,0.078
4.896e-02,0.058
4.928e-02,0.04
4.960e-02,0.042
4.992e-02,0.07
5.024e-02,0.076
5.056e-02,0.078
5.088e-02,0.078
5.120e-02,0.052
5.152e-02,0.042
5.184e-02,0.072
5.216e-02,0.076
5.248e-02,0.092
5.280e-02,0.072
5.312e-02,0.068
5.344e-02,0.04
5.376e-02,0.056
5.408e-02,0.072
5.440e-02,0.098
5.472e-02,0.072
5.504e-02,0.072
5.536e-02,0.042
5.568e-02,0.048
5.600e-02,0.072
5.632e-02,0.074
5.664e-02,0.104
5.696e-02,0.068
5.728e-02,0.04
5.760e-02,0.042
5.792e-02,0.072
5.824e-02,0.074
5.856e-02,0.076
5.888e-02,0.072
5.920e-02,0.044
5.952e-02,0.044
5.984e-02,0.072
6.016e-02,0.12
6.048e-02,0.014
6.080e-02,0.01
6.112e-02,0.008
6.144e-02,0.008
6.176e-02,0.01
6.208e-02,0.008
6.240e-02,0.008
6.272e-02,0.01
6.304e-02,0.008
6.336e-02,0.01
6.368e-02,0.008
6.400e-02,0.01
6.432e-02,0.008
6.464e-02,0.008
6.496e-02,0.006
6.528e-02,0.006
6.560e-02,0.01
6.592e-02,0.008
6.624e-02,0.008
6.656e-02,0.008
6.688e-02,0.008
6.720e-02,0.008
6.752e-02,0.008
6.784e-02,0.008
6.816e-02,0.006
6.848e-02,0.008
6.880e-02,0.008
6.912e-02,0.006
6.944e-02,0.006
6.976e-02,0.01
7.008e-02,0.006
7.040e-02,0.008
7.072e-02,0.006
7.104e-02,0.004
7.136e-02,0.006
7.168e-02,0.006
7.200e-02,0.006
7.232e-02,0.006
7.264e-02,0.006
7.296e-02,0.006
7.328e-02,0.006
7.360e-02,0.008
7.392e-02,0.002
7.424e-02,0.006
7.456e-02,0.006
7.488e-02,0.006
7.520e-02,0.004
7.552e-02,0.006
7.584e-02,0.006
7.616e-02,0.006
7.648e-02,0.006
7.680e-02,0.006
7.712e-02,0.006
7.744e-02,0.008
7.776e-02,0.008
7.808e-02,0.006
7.840e-02,0.008
7.872e-02,0.006
7.904e-02,0.01
7.936e-02,0.006
7.968e-02,0.006
8.000e-02,0.008
8.032e-02,0.008
8.064e-02,0.008
8.096e-02,0.008
8.128e-02,0.008
8.160e-02,0.008
8.192e-02,0.006
8.224e-02,0.008
8.256e-02,0.008
8.288e-02,0.008
8.320e-02,0.006
8.352e-02,0.006
8.384e-02,0.01
8.416e-02,0.01
8.448e-02,0.006
8.480e-02,0.01
8.512e-02,0.008
8.544e-02,0.008
8.576e-02,0.008
8.608e-02,0.008
8.640e-02,0.008
8.672e-02,0.006
8.704e-02,0.01
8.736e-02,0.008
8.768e-02,0.006
8.800e-02,0.008
8.832e-02,0.006
8.864e-02,0.008
8.896e-02,0.008
8.928e-02,0.006
8.960e-02,0.008
8.992e-02,0.004
9.024e-02,0.004
9.056e-02,0.006
9.088e-02,0.008
9.120e-02,0.004
9.152e-02,0.008
9.184e-02,0.004
9.216e-02,0.006
9.248e-02,0.008
9.280e-02,0.006
9.312e-02,0.006
9.344e-02,0.008
9.376e-02,0.01
9.408e-02,0.006
9.440e-02,0.008
9.472e-02,0.006
9.504e-02,0.006
9.536e-02,0.004
9.568e-02,0.006
9.600e-02,0.006
9.632e-02,0.006
9.664e-02,0.008
9.696e-02,0.006
9.728e-02,0.008
9.760e-02,0.006
9.792e-02,0.008
9.824e-02,0.008
9.856e-02,0.006
9.888e-02,0.008
9.920e-02,0.008
9.952e-02,0.008
9.984e-02,0.008
1.002e-01,0.006
1.005e-01,0.008
1.008e-01,0.01
1.011e-01,0.01
1.014e-01,0.006
1.018e-01,0.01
1.021e-01,0.008
1.024e-01,0.008
1.027e-01,0.01
1.030e-01,0.006
1.034e-01,0.008
1.037e-01,0.008
1.040e-01,0.008
1.043e-01,0.008
1.046e-01,0.008
1.050e-01,0.006
1.053e-01,0.01
1.056e-01,0.006
1.059e-01,0.008
1.062e-01,0.01
1.066e-01,0.004
1.069e-01,0.006
1.072e-01,0.01
1.075e-01,0.006
1.078e-01,0.01
1.082e-01,0.006
1.085e-01,0.01
1.088e-01,0.006
1.091e-01,0.006
1.094e-01,0.006
1.098e-01,0.006
1.101e-01,0.006
1.104e-01,0.006
1.107e-01,0.006
1.110e-01,0.008
1.114e-01,0.006
1.117e-01,0.006
1.120e-01,0.008
1.123e-01,0.006
1.126e-01,0.008
1.130e-01,0.006
1.133e-01,0.006
1.136e-01,0.004
1.139e-01,0.006
1.142e-01,0.006
1.146e-01,0.006
1.149e-01,0.006
1.152e-01,0.006
1.155e-01,0.008
1.158e-01,0.008
1.162e-01,0.004
1.165e-01,0.006
1.168e-01,0.006
1.171e-01,0.008
1.174e-01,0.008
1.178e-01,0.006
1.181e-01,0.008
1.184e-01,0.006
1.187e-01,0.006
1.190e-01,0.01
1.194e-01,0.008
1.197e-01,0.008
1.200e-01,0.004
1.203e-01,0.008
1.206e-01,0.008
1.210e-01,0.006
1.213e-01,0.008
1.216e-01,0.006
1.219e-01,0.006
1.222e-01,0.008
1.226e-01,0.006
1.229e-01,0.008
1.232e-01,0.01
1.235e-01,0.012
1.238e-01,0.008
1.242e-01,0.008
1.245e-01,0.01
1.248e-01,0.01
1.251e-01,0.008
1.254e-01,0.006
1.258e-01,0.006
1.261e-01,0.008
1.264e-01,0.01
1.267e-01,0.008
1.270e-01,0.006
1.274e-01,0.01
1.277e-01,0.006
1.280e-01,0.006
1.283e-01,0.008
1.286e-01,0.006
1.290e-01,0.008
1.293e-01,0.006
1.296e-01,0.006
1.299e-01,0.006
1.302e-01,0.006
1.306e-01,0.006
1.309e-01,0.006
1.312e-01,0.006
1.315e-01,0.004
1.318e-01,0.006
1.322e-01,0.006
1.325e-01,0.008
1.328e-01,0.008
1.331e-01,0.006
1.334e-01,0.004
1.338e-01,0.006
1.341e-01,0.006
1.344e-01,0.006
1.347e-01,0.006
1.350e-01,0.008
1.354e-01,0.004
1.357e-01,0.006
1.360e-01,0.008
1.363e-01,0.008
1.366e-01,0.008
1.370e-01,0.008
1.373e-01,0.006
1.376e-01,0.008
1.379e-01,0.006
1.382e-01,0.006
1.386e-01,0.006
1.389e-01,0.008
1.392e-01,0.006
1.395e-01,0.008
1.398e-01,0.006
1.402e-01,0.006
1.405e-01,0.008
1.408e-01,0.008
1.411e-01,0.006
1.414e-01,0.008
1.418e-01,0.006
1.421e-01,0.01
1.424e-01,0.008
1.427e-01,0.008
1.430e-01,0.006
1.434e-01,0.008
1.437e-01,0.006
1.440e-01,0.01
1.443e-01,0.008
1.446e-01,0.01
1.450e-01,0.01
1.453e-01,0.008
1.456e-01,0.012
1.459e-01,0.008
1.462e-01,0.006
1.466e-01,0.006
1.469e-01,0.008
1.472e-01,0.006
1.475e-01,0.008
1.478e-01,0.008
1.482e-01,0.008
1.485e-01,0.008
1.488e-01,0.008
1.491e-01,0.008
1.494e-01,0.006
1.498e-01,0.008
1.501e-01,0.006
1.504e-01,0.006
1.507e-01,0.006
1.510e-01,0.008
1.514e-01,0.006
1.517e-01,0.004
1.520e-01,0.004
1.523e-01,0.006
1.526e-01,0.008
1.530e-01,0.006
1.533e-01,0.006
1.536e-01,0.008
1.539e-01,0.004
1.542e-01,0.006
1.546e-01,0.006
1.549e-01,0.004
1.552e-01,0.006
1.555e-01,0.008
1.558e-01,0.006
1.562e-01,0.006
1.565e-01,0.006
1.568e-01,0.008
1.571e-01,0.006
1.574e-01,0.008
1.578e-01,0.006
1.581e-01,0.008
1.584e-01,0.006
1.587e-01,0.006
1.590e-01,0.01
1.594e-01,0.006
1.597e-01,0.006
1.600e-01,0.006
1.603e-01,0.006
1.606e-01,0.008
1.610e-01,0.01
1.613e-01,0.006
1.616e-01,0.008
1.619e-01,0.008
1.622e-01,0.008
1.626e-01,0.008
1.629e-01,0.01
1.632e-01,0.008
1.635e-01,0.01
1.638e-01,0.006
1.642e-01,0.006
1.645e-01,0.008
1.648e-01,0.004
1.651e-01,0.01
1.654e-01,0.01
1.658e-01,0.008
1.661e-01,0.01
1.664e-01,0.002
1.667e-01,0.006
1.670e-01,0.006
1.674e-01,0.004
1.677e-01,0.006
1.680e-01,0.01
1.683e-01,0.004
1.686e-01,0.006
1.690e-01,0.006
1.693e-01,0.008
1.696e-01,0.008
1.699e-01,0.006
1.702e-01,0.006
1.706e-01,0.008
1.709e-01,0.004
1.712e-01,0.006
1.715e-01,0.006
1.718e-01,0.006
1.722e-01,0.006
1.725e-01,0.008
1.728e-01,0.006
1.731e-01,0.008
1.734e-01,0.006
1.738e-01,0.006
1.741e-01,0.006
1.744e-01,0.006
1.747e-01,0.006
1.750e-01,0.008
1.754e-01,0.006
1.757e-01,0.004
1.760e-01,0.006
1.763e-01,0.008
1.766e-01,0.008
1.770e-01,0.006
1.773e-01,0.006
1.776e-01,0.004
1.779e-01,0.006
1.782e-01,0.008
1.786e-01,0.006
1.789e-01,0.006
1.792e-01,0.006
1.795e-01,0.008
1.798e-01,0.008
1.802e-01,0.008
1.805e-01,0.006
1.808e-01,0.008
1.811e-01,0.006
1.814e-01,0.006
1.818e-01,0.006
1.821e-01,0.008
1.824e-01,0.006
1.827e-01,0.008
1.830e-01,0.01
1.834e-01,0.008
1.837e-01,0.01
1.840e-01,0.01
1.843e-01,0.006
1.846e-01,0.006
1.850e-01,0.008
1.853e-01,0.004
1.856e-01,0.006
1.859e-01,0.01
1.862e-01,0.01
1.866e-01,0.006
1.869e-01,0.006
1.872e-01,0.006
1.875e-01,0.006
1.878e-01,0.008
1.882e-01,0.006
1.885e-01,0.006
1.888e-01,0.006
1.891e-01,0.008
1.894e-01,0.002
1.898e-01,0.004
1.901e-01,0.006
1.904e-01,0.004
1.907e-01,0.006
1.910e-01,0.004
1.914e-01,0.008
1.917e-01,0.008
1.920e-01,0.006
1.923e-01,0.004
1.926e-01,0.008
1.930e-01,0.006
1.933e-01,0.008
1.936e-01,0.008
1.939e-01,0.006
1.942e-01,0.006
1.946e-01,0.006
1.949e-01,0.006
1.952e-01,0.006
1.955e-01,0.008
1.958e-01,0.006
1.962e-01,0.004
1.965e-01,0.004
1.968e-01,0.006
1.971e-01,0.006
1.974e-01,0.008
1.978e-01,0.008
1.981e-01,0.006
1.984e-01,0.008
1.987e-01,0.006
1.990e-01,0.008
1.994e-01,0.008
1.997e-01,0.006
2.000e-01,0.008
2.003e-01,0.008
2.006e-01,0.01
2.010e-01,0.004
2.013e-01,0.01
2.016e-01,0.008
2.019e-01,0.006
2.022e-01,0.01
2.026e-01,0.008
2.029e-01,0.008
2.032e-01,0.008
2.035e-01,0.008
2.038e-01,0.01
2.042e-01,0.006
2.045e-01,0.008
2.048e-01,0.008
2.051e-01,0.006
2.054e-01,0.008
2.058e-01,0.008
2.061e-01,0.008
2.064e-01,0.008
2.067e-01,0.008
2.070e-01,0.008
2.074e-01,0.008
2.077e-01,0.008
2.080e-01,0.008
2.083e-01,0.006
2.086e-01,0.006
2.090e-01,0.006
2.093e-01,0.006
2.096e-01,0.006
2.099e-01,0.006
2.102e-01,0.006
2.106e-01,0.006
2.109e-01,0.006
2.112e-01,0.008
2.115e-01,0.004
2.118e-01,0.006
2.122e-01,0.006
2.125e-01,0.008
2.128e-01,0.004
2.131e-01,0.004
2.134e-01,0.004
2.138e-01,0.002
2.141e-01,0.004
2.144e-01,0.004
2.147e-01,0.008
2.150e-01,0.01
2.154e-01,0.006
2.157e-01,0.006
2.160e-01,0.004
2.163e-01,0.006
2.166e-01,0.008
2.170e-01,0.004
2.173e-01,0.008
2.176e-01,0.008
2.179e-01,0.004
2.182e-01,0.006
2.186e-01,0.006
2.189e-01,0.006
2.192e-01,0.006
2.195e-01,0.006
2.198e-01,0.006
2.202e-01,0.01
2.205e-01,0.01
2.208e-01,0.01
2.211e-01,0.008
2.214e-01,0.008
2.218e-01,0.006
2.221e-01,0.008
2.224e-01,0.008
2.227e-01,0.008
2.230e-01,0.01
2.234e-01,0.006
2.237e-01,0.006
2.240e-01,0.008
2.243e-01,0.01
2.246e-01,0.008
2.250e-01,0.01
2.253e-01,0.01
2.256e-01,0.006
2.259e-01,0.008
2.262e-01,0.008
2.266e-01,0.008
2.269e-01,0.008
2.272e-01,0.008
2.275e-01,0.008
2.278e-01,0.006
2.282e-01,0.004
2.285e-01,0.006
2.288e-01,0.004
2.291e-01,0.006
2.294e-01,0.008
2.298e-01,0.006
2.301e-01,0.008
2.304e-01,0.128
2.307e-01,0.148
2.310e-01,0.154
2.314e-01,0.148
2.317e-01,0.15
2.320e-01,0.152
2.323e-01,0.148
2.326e-01,0.148
2.330e-01,0.15
2.333e-01,0.146
2.336e-01,0.15
2.339e-01,0.152
2.342e-01,0.15
2.346e-01,0.15
2.349e-01,0.152
2.352e-01,0.14
2.355e-01,0.154
2.358e-01,0.152
2.362e-01,0.15
2.365e-01,0.15
2.368e-01,0.15
2.371e-01,0.15
2.374e-01,0.134
2.378e-01,0.154
2.381e-01,0.152
2.384e-01,0.148
2.387e-01,0.152
2.390e-01,0.152
2.394e-01,0.154
2.397e-01,0.15
2.400e-01,0.15
2.403e-01,0.126
2.406e-01,0.124
2.410e-01,0.14
2.413e-01,0.154
2.416e-01,0.152
2.419e-01,0.15
2.422e-01,0.154
2.426e-01,0.012
2.429e-01,0.006
2.432e-01,0.006
2.435e-01,0.008
2.438e-01,0.006
2.442e-01,0.006
2.445e-01,0.004
2.448e-01,0.004
2.451e-01,0.004
2.454e-01,0.006
2.458e-01,0.006
2.461e-01,0.004
2.464e-01,0.006
2.467e-01,0.004
2.470e-01,0.004
2.474e-01,0.004
2.477e-01,0.01
2.480e-01,0.006
2.483e-01,0.006
2.486e-01,0.006
2.490e-01,0.004
2.493e-01,0.006
2.496e-01,0.006
2.499e-01,0.002
2.502e-01,0.002
2.506e-01,0.004
2.509e-01,0.004
2.512e-01,0.004
2.515e-01,0.004
2.518e-01,0.004
2.522e-01,0.006
2.525e-01,0.004
2.528e-01,0.004
2.531e-01,0.004
2.534e-01,0.002
2.538e-01,0.002
2.541e-01,0.004
2.544e-01,0.004
2.547e-01,0.004
2.550e-01,0.002
2.554e-01,-0.006
2.557e-01,0.002
2.560e-01,0
2.563e-01,0.004
2.566e-01,0.002
2.570e-01,0.006
2.573e-01,0.006
2.576e-01,0.004
2.579e-01,0.004
2.582e-01,0.004
2.586e-01,0.006
2.589e-01,0.004
2.592e-01,0.004
2.595e-01,0.006
2.598e-01,0.004
2.602e-01,0.004
2.605e-01,0.008
2.608e-01,0.006
2.611e-01,0.004
2.614e-01,0.004
2.618e-01,0.004
2.621e-01,0.006
2.624e-01,0.006
2.627e-01,0.004
2.630e-01,0.006
2.634e-01,0.006
2.637e-01,0.004
2.640e-01,0.006
2.643e-01,0.008
2.646e-01,0.006
2.650e-01,0.004
2.653e-01,0.004
2.656e-01,0.006
2.659e-01,0.006
2.662e-01,0.006
2.666e-01,0.006
2.669e-01,0.004
2.672e-01,0.002
2.675e-01,0.006
2.678e-01,0.004
2.682e-01,0.006
2.685e-01,0.006
2.688e-01,0.006
2.691e-01,0.004
2.694e-01,0.004
2.698e-01,0.014
2.701e-01,0.01
2.704e-01,0.002
2.707e-01,0.006
2.710e-01,0.002
2.714e-01,0.002
2.717e-01,0.004
2.720e-01,0.004
2.723e-01,0.004
2.726e-01,0.006
2.730e-01,0.004
2.733e-01,0.002
2.736e-01,0.004
2.739e-01,0.004
2.742e-01,0.002
2.746e-01,0.004
2.749e-01,0.002
2.752e-01,0.002
2.755e-01,0.004
2.758e-01,0.004
2.762e-01,0.002
2.765e-01,0.004
2.768e-01,0.004
2.771e-01,0.004
2.774e-01,0.002
2.778e-01,0.004
2.781e-01,0.004
2.784e-01,0.004
2.787e-01,0.004
2.790e-01,0.004
2.794e-01,0.004
2.797e-01,0.004
2.800e-01,0.004
2.803e-01,0.004
2.806e-01,0.008
2.810e-01,0.006
2.813e-01,0.008
2.816e-01,0.004
2.819e-01,0.004
2.822e-01,0.004
2.826e-01,0.006
2.829e-01,0.006
2.832e-01,0.004
2.835e-01,0.004
2.838e-01,0.004
2.842e-01,0.004
2.845e-01,0.002
2.848e-01,0.004
2.851e-01,0.002
2.854e-01,0.006
2.858e-01,0.008
2.861e-01,0.006
2.864e-01,0.004
2.867e-01,0.006
2.870e-01,0.006
2.874e-01,0.004
2.877e-01,0.004
2.880e-01,0.004
2.883e-01,0.004
2.886e-01,0.002
2.890e-01,0.006
2.893e-01,0.006
2.896e-01,0.006
2.899e-01,0.006
2.902e-01,0.002
2.906e-01,0.002
2.909e-01,0.002
2.912e-01,0
2.915e-01,0.002
2.918e-01,0.002
2.922e-01,0.002
2.925e-01,0.002
2.928e-01,0
2.931e-01,0.004
2.934e-01,0.004
2.938e-01,0.004
2.941e-01,0.002
2.944e-01,0.004
2.947e-01,0
2.950e-01,0.002
2.954e-01,0.002
2.957e-01,0.002
2.960e-01,0.004
2.963e-01,0.002
2.966e-01,0.004
2.970e-01,0.006
2.973e-01,0.004
2.976e-01,0.004
2.979e-01,0.006
2.982e-01,0
2.986e-01,0.004
2.989e-01,0.004
2.992e-01,0.006
2.995e-01,0.006
2.998e-01,0.006
3.002e-01,0.004
3.005e-01,0.006
3.008e-01,0.006
3.011e-01,0.004
3.014e-01,0.004
3.018e-01,0.008
3.021e-01,0.006
3.024e-01,0.004
3.027e-01,0.004
3.030e-01,0.006
3.034e-01,0.004
3.037e-01,0.004
3.040e-01,0.002
3.043e-01,0.006
3.046e-01,0.006
3.050e-01,0.004
3.053e-01,0.004
3.056e-01,0.006
3.059e-01,0.006
3.062e-01,0.006
3.066e-01,0.004
3.069e-01,0.006
3.072e-01,0.006
3.075e-01,0.006
3.078e-01,0.004
3.082e-01,0.004
3.085e-01,0.004
3.088e-01,0.004
3.091e-01,0.002
3.094e-01,0.002
3.098e-01,0.004
3.101e-01,0.004
3.104e-01,0.002
3.107e-01,0.004
3.110e-01,0.004
3.114e-01,0.004
3.117e-01,0.004
3.120e-01,0.004
3.123e-01,0.004
3.126e-01,0.004
3.130e-01,0.004
3.133e-01,0.002
3.136e-01,0.004
3.139e-01,0.002
3.142e-01,0.002
3.146e-01,0.098
3.149e-01,0.15
3.152e-01,0.15
3.155e-01,0.152
3.158e-01,0.148
3.162e-01,0.152
3.165e-01,0.15
3.168e-01,0.148
3.171e-01,0.15
3.174e-01,0.152
3.178e-01,0.152
3.181e-01,0.15
3.184e-01,0.15
3.187e-01,0.152
3.190e-01,0.152
3.194e-01,0.154
3.197e-01,0.15
3.200e-01,0.152
3.203e-01,0.148
3.206e-01,0.156
3.210e-01,0.15
3.213e-01,0.156
3.216e-01,0.152
3.219e-01,0.15
3.222e-01,0.15
3.226e-01,0.152
3.229e-01,0.154
3.232e-01,0.14
3.235e-01,0.154
3.238e-01,0.152
3.242e-01,0.152
3.245e-01,0.154
3.248e-01,0.152
3.251e-01,0.148
3.254e-01,0.154
3.258e-01,0.136
3.261e-01,0.122
3.264e-01,0.112
3.267e-01,0.156
3.270e-01,0.152
3.274e-01,0.152
3.277e-01,0.152
3.280e-01,0.024
3.283e-01,0.01
